<?xml version="1.0" encoding="UTF-8" standalone="no"?>
<svg
   inkscape:version="1.1.1 (3bf5ae0d25, 2021-09-20)"
   sodipodi:docname="build_failed.svg"
   width="59.913288"
   height="19.893274"
   viewBox="0 0 22.641345 7.9301015"
   version="1.1"
   id="svg62"
   style="fill-rule:evenodd;image-rendering:optimizeQuality;shape-rendering:geometricPrecision;text-rendering:geometricPrecision"
   xmlns:inkscape="http://www.inkscape.org/namespaces/inkscape"
   xmlns:sodipodi="http://sodipodi.sourceforge.net/DTD/sodipodi-0.dtd"
   xmlns="http://www.w3.org/2000/svg"
   xmlns:svg="http://www.w3.org/2000/svg"
   xmlns:rdf="http://www.w3.org/1999/02/22-rdf-syntax-ns#"
   xmlns:cc="http://creativecommons.org/ns#"
   xmlns:dc="http://purl.org/dc/elements/1.1/">
  <sodipodi:namedview
     scale-x="0.30001"
     lock-margins="true"
     inkscape:document-rotation="0"
     fit-margin-bottom="0"
     fit-margin-right="0"
     fit-margin-left="0"
     fit-margin-top="0"
     inkscape:guide-bbox="true"
     showguides="true"
     inkscape:current-layer="g5230"
     inkscape:window-maximized="0"
     inkscape:window-y="0"
     inkscape:window-x="0"
     inkscape:cy="-17.322289"
     inkscape:cx="32.550676"
     inkscape:zoom="7.8800207"
     showgrid="false"
     id="namedview40"
     inkscape:window-height="1200"
     inkscape:window-width="1920"
     inkscape:pageshadow="2"
     inkscape:pageopacity="0"
     guidetolerance="10"
     gridtolerance="10"
     objecttolerance="10"
     borderopacity="1"
     bordercolor="#666666"
     pagecolor="#ffffff"
     inkscape:pagecheckerboard="0">
    <sodipodi:guide
       inkscape:locked="false"
       id="guide937"
       orientation="0,1"
       position="85.822296,-10.204314" />
    <sodipodi:guide
       inkscape:locked="false"
       id="guide943"
       orientation="0,297.54272"
       position="1.0729751,-22.300906" />
    <sodipodi:guide
       inkscape:locked="false"
       id="guide945"
       orientation="-106.85524,0"
       position="113.51495,-22.300906" />
    <sodipodi:guide
       inkscape:locked="false"
       id="guide947"
       orientation="0,-297.54272"
       position="113.51495,20.295042" />
    <sodipodi:guide
       inkscape:locked="false"
       id="guide949"
       orientation="106.85524,0"
       position="1.0729751,20.295042" />
    <sodipodi:guide
       position="8.6382126,8.9671498"
       orientation="1,0"
       id="guide5177" />
  </sodipodi:namedview>
  <metadata
     id="metadata68">
    <rdf:RDF>
      <cc:Work
         rdf:about="">
        <dc:format>image/svg+xml</dc:format>
        <dc:type
           rdf:resource="http://purl.org/dc/dcmitype/StillImage" />
      </cc:Work>
    </rdf:RDF>
  </metadata>
  <defs
     id="defs66" />
  <rect
     ry="3.3815598e-07"
     rx="1.2144024e-07"
     y="0"
     x="-0.5741657"
     height="7.9301004"
     width="7.9300823"
     id="rect951"
     style="opacity:1;fill:#353535;fill-opacity:1;fill-rule:evenodd;stroke:none;stroke-width:0.17754;stroke-linejoin:round;stroke-miterlimit:4;stroke-dasharray:none;stroke-opacity:1" />
  <rect
     style="opacity:1;fill:#29464a;fill-opacity:1;fill-rule:evenodd;stroke:none;stroke-width:0.0185534;stroke-linejoin:round;stroke-miterlimit:4;stroke-dasharray:none;stroke-opacity:1"
     id="rect4605"
     width="0.0067459457"
     height="0.10154243"
     x="4.1294508"
     y="2.5115697" />
  <g
     transform="translate(-0.94000323,-16.235751)"
     id="g5230">
    <g
       id="g6"
       style="fill:#353535;fill-opacity:1;stroke-width:33.805;stroke-linecap:round"
       transform="matrix(0.0173549,0,0,0.0173549,1.0259132,16.83878)">
      <path
         inkscape:connector-curvature="0"
         id="path2-3"
         d="m 186.58107,8.5597827 c -3.04998,0.079472 -6.07866,0.2239661 -9.11359,0.4472892 -0.96501,0.070979 -1.92647,0.2099576 -2.88928,0.2955303 L 161.23814,53.656116 c -9.68153,2.005241 -19.12496,4.955927 -28.20038,8.817986 L 95.508887,34.167088 c -1.253868,0.720875 -2.51125,1.406712 -3.74891,2.156573 -2.589209,1.568291 -5.141566,3.202838 -7.657004,4.896219 -2.515254,1.693476 -5.006233,3.446696 -7.4421,5.263636 -2.435966,1.816841 -4.828196,3.708443 -7.179437,5.647023 -0.934332,0.770462 -1.819936,1.595788 -2.738055,2.388207 l 15.664223,43.219315 c -0.03383,0.0367 -0.05376,0.08306 -0.08755,0.11981 l 0.111431,0.359431 C 75.843973,105.42222 69.917931,113.37201 64.801273,122.03545 L 17.63349,120.74948 c -0.935446,2.12699 -1.898035,4.25384 -2.746014,6.39784 -1.155324,2.92093 -2.220691,5.83814 -3.215625,8.78604 -0.994646,2.94799 -1.9341111,5.93615 -2.7698925,8.90584 -0.7487438,2.66062 -1.3998712,5.30742 -2.0217039,7.97932 l 38.5954424,25.91082 c -0.04692,0.42482 -0.01272,0.85256 -0.0557,1.27798 l -0.01592,0.66295 c -0.443811,4.51732 -0.402606,8.55682 -0.405932,13.05924 9.54e-4,4.51982 0.205298,9.05974 0.652676,13.5944 l -39.07303,26.24628 c 0.011456,0.0505 0.044232,0.0932 0.055716,0.14378 0.678641,2.98625 1.4326661,5.96799 2.2684473,8.9378 0.8357814,2.9697 1.7434107,5.926 2.7380557,8.87389 0.994646,2.9479 2.060397,5.86511 3.215624,8.78603 0.838716,2.12048 1.755927,4.242 2.682339,6.34193 l 46.817566,-1.28596 c 0.313061,0.53094 0.690855,1.02231 1.010852,1.54954 h 0.294502 c 2.29473,3.78049 4.738219,7.43976 7.330667,10.94261 2.592445,3.50228 5.324803,6.85765 8.190288,10.07201 l -15.903009,43.81036 c 1.381851,1.20939 2.748737,2.42044 4.162798,3.5863 2.351241,1.93859 4.743569,3.83019 7.179438,5.64703 2.435964,1.81694 4.934898,3.57025 7.450058,5.26364 2.515254,1.69348 5.059934,3.32792 7.649043,4.89622 0.740751,0.44874 1.485074,0.89016 2.23661,1.3179 l 37.162724,-28.0674 c 0.54098,0.23805 1.09713,0.40007 1.63967,0.63101 l 0.0875,-0.0638 c 4.10287,1.75096 8.3006,3.28976 12.54413,4.66458 4.24381,1.37483 8.53694,2.56102 12.89433,3.55437 l 0.0557,0.15175 c 0.0212,0.005 0.0426,0.0271 0.0636,0.032 l 13.37189,44.52923 c 1.88066,0.1947 3.73916,0.42818 5.62734,0.56711 3.03493,0.22345 6.0874,0.33592 9.13747,0.41534 1.29385,0.0335 2.59423,0.026 3.89218,0.0239 V 253.36275 c -0.21419,0.009 -0.43102,0.0217 -0.64472,0.0159 -0.32826,-0.009 -0.65129,-0.0422 -0.97901,-0.0559 -1.63696,-0.0546 -3.27278,-0.20559 -4.91099,-0.39137 -7.03162,-0.79745 -14.05958,-2.72811 -20.73441,-6.06238 -21.07751,-10.52922 -33.18202,-31.43363 -33.3183,-53.13954 0.017,-2.71331 0.24239,-5.43019 0.62878,-8.09912 0.38641,-2.66885 0.95166,-5.3043 1.69537,-7.89147 0.74372,-2.58716 1.64897,-5.11963 2.73806,-7.58795 1.08908,-2.46828 2.3584,-4.86036 3.78076,-7.17259 1.42235,-2.31223 2.99235,-4.55035 4.73586,-6.6694 1.74353,-2.11904 3.67028,-4.11798 5.72286,-6.00645 2.05256,-1.88857 4.23286,-3.66671 6.58248,-5.2876 2.34962,-1.62089 4.8711,-3.10877 7.50577,-4.42498 1.88018,-0.93926 3.75695,-1.74359 5.68307,-2.47605 1.92609,-0.73246 3.88402,-1.38705 5.84223,-1.91696 1.95824,-0.52991 3.91349,-0.95409 5.89001,-1.28595 0.92866,-0.15591 1.87131,-0.2146 2.80174,-0.32747 0.31813,-0.0412 0.63616,-0.0836 0.95512,-0.11982 0.73312,-0.0774 1.47163,-0.21244 2.20477,-0.26359 0.71669,-0.0501 1.4251,-0.007 2.1411,-0.032 0.65965,-0.0285 1.32098,-0.0399 1.98191,-0.0479 V 8.56777 c -0.36379,0.00137 -0.72659,-0.00918 -1.09044,-0.00798 -1.02504,0.010922 -2.04106,-0.026644 -3.0644,0 z"
         style="fill:#ffffff;fill-opacity:1;stroke:#ffffff;stroke-width:1.06906;stroke-miterlimit:4;stroke-dasharray:none;stroke-opacity:1" />
      <path
         inkscape:connector-curvature="0"
         id="Arrow"
         d="m 221.85785,303.72585 -2.20622,35.95026 C 362.70108,323.96279 400.28466,146.87365 276.11291,83.578082 l 10.86864,-31.457 -63.4008,27.157102 26.94538,70.382206 11.97568,-33.4041 c 88.87788,56.9078 52.42313,175.47918 -40.64396,187.46956 z"
         style="fill:#df7e08;fill-opacity:1;fill-rule:evenodd;stroke:none;stroke-width:1.06906;stroke-linecap:butt;stroke-linejoin:miter;stroke-miterlimit:4;stroke-dasharray:none;stroke-opacity:1;paint-order:stroke fill markers" />
      <rect
         ry="1.9484756e-05"
         rx="7.4446702e-06"
         y="-34.746895"
         x="418.90228"
         height="456.93732"
         width="919.23828"
         id="rect953"
         style="opacity:1;fill:#f44336;fill-opacity:1;fill-rule:evenodd;stroke:none;stroke-width:18.1248;stroke-linejoin:round;stroke-miterlimit:4;stroke-dasharray:none;stroke-opacity:1" />
    </g>
    <text
       xml:space="preserve"
       style="font-style:normal;font-variant:normal;font-weight:normal;font-stretch:normal;font-size:4.85253px;line-height:6.49891px;font-family:'Roboto Condensed';-inkscape-font-specification:'Roboto Condensed, ';letter-spacing:0px;word-spacing:0px;fill:#353535;fill-opacity:1;stroke:none;stroke-width:0.259956px;stroke-linecap:butt;stroke-linejoin:miter;stroke-opacity:1"
       x="9.4180183"
       y="21.92572"
       id="text5223"><tspan
         sodipodi:role="line"
         id="tspan5221"
         x="9.4180183"
         y="21.92572"
         style="font-style:normal;font-variant:normal;font-weight:bold;font-stretch:condensed;font-family:'Roboto Condensed';-inkscape-font-specification:'Roboto Condensed, Bold Condensed';fill:#353535;fill-opacity:1;stroke-width:0.259956px">failed</tspan></text>
  </g>
</svg>
